<?xml version="1.0" encoding="UTF-8" standalone="no"?>
<!-- Created with Inkscape (http://www.inkscape.org/) -->

<svg
   xmlns:dc="http://purl.org/dc/elements/1.1/"
   xmlns:cc="http://creativecommons.org/ns#"
   xmlns:rdf="http://www.w3.org/1999/02/22-rdf-syntax-ns#"
   xmlns:svg="http://www.w3.org/2000/svg"
   xmlns="http://www.w3.org/2000/svg"
   xmlns:sodipodi="http://sodipodi.sourceforge.net/DTD/sodipodi-0.dtd"
   xmlns:inkscape="http://www.inkscape.org/namespaces/inkscape"
   width="44.388371mm"
   height="41.124168mm"
   viewBox="0 0 44.388371 41.124168"
   version="1.1"
   id="svg3800"
   inkscape:version="0.92.1 r15371"
   sodipodi:docname="blackqueen.svg">
  <defs
     id="defs3794" />
  <sodipodi:namedview
     id="base"
     pagecolor="#ffffff"
     bordercolor="#666666"
     borderopacity="1.0"
     inkscape:pageopacity="0.0"
     inkscape:pageshadow="2"
     inkscape:zoom="4.5679748"
     inkscape:cx="83.883534"
     inkscape:cy="77.714962"
     inkscape:document-units="mm"
     inkscape:current-layer="layer1"
     showgrid="false"
     inkscape:window-width="1600"
     inkscape:window-height="877"
     inkscape:window-x="-8"
     inkscape:window-y="134"
     inkscape:window-maximized="1" />
  <metadata
     id="metadata3797">
    <rdf:RDF>
      <cc:Work
         rdf:about="">
        <dc:format>image/svg+xml</dc:format>
        <dc:type
           rdf:resource="http://purl.org/dc/dcmitype/StillImage" />
        <dc:title />
      </cc:Work>
    </rdf:RDF>
  </metadata>
  <g
     inkscape:label="Calque 1"
     inkscape:groupmode="layer"
     id="layer1"
     transform="translate(-85.151053,-96.521249)">
    <g
       transform="matrix(0.35277777,0,0,0.35277777,4.5341928,39.749587)"
       id="g3747">
      <path
         d="m 285.2,162.8 c -3.5,2.7 -4.1,6.8 -2,13.5 2.3,7.3 2.2,17.3 -0.1,29.2 l -1.7,9 -2.3,-5 c -4.8,-10.6 -7.3,-19.8 -7.1,-26 0.1,-3.3 0.2,-7.2 0.2,-8.7 0.2,-6.5 -7.2,-11.1 -13.6,-8.4 -4.2,1.7 -5.7,3.8 -6.3,8.4 -0.4,3.3 -0.1,4.4 2.6,7.4 4.5,5.1 5.1,7.7 5.1,20.6 l -0.1,11.7 -3.9,-4.3 c -6.2,-6.9 -8.4,-12.3 -7.6,-19 0.5,-4.7 0.3,-6.3 -1.4,-9 -3.4,-5.5 -8.7,-6.6 -14,-3 -6.2,4.2 -5.9,12.5 0.5,17.3 2.8,2.2 3.3,3.3 3.9,8.5 0.4,3.2 2,10.9 3.5,16.9 2.5,9.7 3.5,11.8 7.9,17.3 2.7,3.5 5.7,7.8 6.6,9.6 1.6,3.1 1.6,3.5 -0.9,10.3 -4.3,12 -3.5,13.4 9,16.6 9.6,2.4 45.4,2.4 56.4,0 11.8,-2.6 13.3,-5.5 8.5,-16.9 -1.5,-3.6 -2.3,-7 -2,-8.4 0.3,-1.2 3.4,-5.7 6.7,-10 5.9,-7.4 6.2,-8.1 9,-19.6 1.5,-6.6 3.1,-14.3 3.4,-17.2 0.6,-4.3 1.2,-5.4 3.9,-7.1 6.9,-4.5 6.5,-14.7 -0.7,-18.1 -4.4,-2.1 -8,-1.3 -11.9,2.7 -2.9,2.9 -3,3.2 -2.3,9.3 0.6,5.6 0.3,7 -1.8,11.2 -1.4,2.7 -4.1,6.7 -6.1,8.9 l -3.5,4 -0.3,-6 c -0.7,-15.5 0.6,-21.8 5,-25.9 7.5,-6.7 -0.7,-19.8 -10.3,-16.6 -6,2 -7,4.1 -6.7,14.1 0.2,7.7 -0.1,10.1 -2.7,17.9 -1.7,5 -3.9,10.7 -4.9,12.7 l -1.9,3.6 -1.6,-9 c -2.1,-11.3 -2.2,-22.7 -0.2,-28.3 2.2,-6.2 1.9,-10.3 -1,-13.4 -2.9,-3.2 -9.6,-3.6 -13.3,-0.8 z m 9.6,4.4 c 1.7,1.7 1.5,5.3 -0.3,6.8 -3.8,3.1 -9.6,-2.7 -6.5,-6.5 1.5,-1.8 5.1,-2 6.8,-0.3 z m -28.6,6.2 c 2.3,3.5 0,6.8 -4.3,6.4 -2.9,-0.3 -3.4,-0.7 -3.7,-3.3 -0.3,-1.9 0.2,-3.3 1.4,-4.2 1.9,-1.4 5.4,-0.8 6.6,1.1 z m 57.2,-1.1 c 1.2,0.9 1.7,2.3 1.4,4.2 -0.2,2.4 -0.8,3.1 -3.1,3.3 -5.4,0.6 -7.7,-4.3 -3.5,-7.2 2.7,-1.9 3,-1.9 5.2,-0.3 z m -81.6,11.9 c 1.7,1.7 1.5,5.3 -0.3,6.8 -2,1.7 -6.2,0.5 -7,-2 -1.4,-4.4 4.1,-8 7.3,-4.8 z m 105.6,0.4 c 1.9,1.8 2,2.8 0.6,5.5 -2,3.7 -8,1.8 -8,-2.6 0,-4.2 4.4,-5.9 7.4,-2.9 z m -27.9,48.5 c 2.8,1 4.1,2.1 4.3,3.5 l 0.3,2.2 -32.5,-0.1 c -31,-0.1 -32.6,-0.2 -32.6,-1.9 0,-4.2 10.9,-5.8 36.5,-5.4 13.5,0.3 21.3,0.8 24,1.7 z m -4.1,21.8 c 2.1,0.5 4.6,1.7 5.5,2.5 1.3,1.4 1.3,1.8 0.1,3 -1.3,1.2 -4,1.3 -16,0.7 -8,-0.5 -20.5,-0.5 -27.9,0 -13.1,0.9 -16.1,0.4 -16.1,-2.2 0,-1.6 5.7,-3.8 12.1,-4.8 7.6,-1.2 36.7,-0.6 42.3,0.8 z"
         id="path3690"
         inkscape:connector-curvature="0"
         style="fill:#000000;stroke:none;stroke-width:0.1" />
    </g>
    <path
       style="fill:#ffffff;stroke-width:0.21891539"
       d="m 13.021772,40.915726 c -1.545963,-0.199419 -2.923805,-0.908142 -3.9681187,-2.041089 -2.6336548,-2.857178 -0.916128,-7.765121 3.1918347,-9.12087 1.252366,-0.413319 3.152125,-0.15824 4.353554,0.584546 1.555049,0.961413 2.305851,2.304588 2.43784,4.36127 0.277471,4.323589 -2.04894,6.727752 -6.01511,6.216143 z"
       id="path76"
       inkscape:connector-curvature="0"
       transform="matrix(0.26458333,0,0,0.26458333,85.151053,96.521249)" />
    <path
       style="fill:#ffffff;stroke-width:0.21891539"
       d="m 43.519587,24.944824 c -3.0694,-0.473992 -3.743096,-1.403379 -3.74577,-5.167416 -0.0017,-2.36292 0.01973,-2.473092 0.657014,-3.381227 1.652432,-2.354724 5.638587,-2.832369 8.364681,-1.002306 2.110074,1.41652 3.067053,4.613632 2.050818,6.851452 -0.974868,2.146725 -3.90803,3.227432 -7.326743,2.699497 z"
       id="path78"
       inkscape:connector-curvature="0"
       transform="matrix(0.26458333,0,0,0.26458333,85.151053,96.521249)" />
    <path
       style="fill:#ffffff;stroke-width:0.21891539"
       d="m 82.193378,17.831085 c -3.2558,-1.622433 -4.841181,-5.594514 -3.288534,-8.2392305 1.048898,-1.7866494 2.691258,-2.5897334 5.279858,-2.5817535 3.358177,0.010352 5.326267,1.7968718 5.559565,5.046657 0.192565,2.682385 -0.959174,5.040858 -2.889889,5.91777 -1.338935,0.608131 -3.272182,0.548635 -4.661,-0.143443 z"
       id="path80"
       inkscape:connector-curvature="0"
       transform="matrix(0.26458333,0,0,0.26458333,85.151053,96.521249)" />
    <path
       style="fill:#ffffff;stroke-width:0.21891539"
       d="m 120.93837,24.851632 c -2.51548,-0.707712 -4.09679,-2.484052 -4.08764,-4.59178 0.009,-2.025581 1.12082,-3.53233 3.98866,-5.404476 2.42347,-1.582063 3.5291,-1.437896 5.92356,0.772394 1.46038,1.348049 1.88857,3.358426 1.33942,6.288619 -0.41141,2.195191 -1.43634,2.949414 -4.26678,3.139821 -1.2019,0.08085 -2.11081,0.01667 -2.89722,-0.204578 z"
       id="path82"
       inkscape:connector-curvature="0"
       transform="matrix(0.26458333,0,0,0.26458333,85.151053,96.521249)" />
    <path
       style="fill:#ffffff;stroke-width:0.21891539"
       d="m 153.27971,41.170296 c -1.82644,-0.557592 -3.43662,-1.928332 -4.11245,-3.500927 -0.42025,-0.977869 -0.45663,-3.353857 -0.0686,-4.477571 0.37633,-1.089718 1.60611,-2.448989 2.74314,-3.031991 1.20443,-0.61756 2.9609,-0.607591 4.39324,0.02493 1.95938,0.865265 4.26885,3.532386 4.26885,4.929935 0,0.962557 -1.10923,3.571657 -1.92226,4.52151 -0.43436,0.50745 -1.18929,1.104114 -1.67762,1.325922 -0.91034,0.413486 -2.62856,0.512184 -3.62433,0.208188 z"
       id="path84"
       inkscape:connector-curvature="0"
       transform="matrix(0.26458333,0,0,0.26458333,85.151053,96.521249)" />
    <path
       style="fill:#ffffff;stroke-width:0.21891539"
       d="m 77.316072,103.53098 c -34.797149,-0.19678 -36.558871,-0.316 -36.558871,-2.4742 0,-2.346743 3.49449,-4.290094 9.67992,-5.383182 7.893733,-1.394979 22.957139,-1.976943 40.23279,-1.554367 21.843039,0.534299 28.641369,1.171465 32.489839,3.045076 2.93491,1.428846 3.67266,2.382631 3.96334,5.123913 l 0.1567,1.47768 -11.46383,-0.041 c -6.30511,-0.0226 -23.63006,-0.10981 -38.499888,-0.1939 z"
       id="path86"
       inkscape:connector-curvature="0"
       transform="matrix(0.26458333,0,0,0.26458333,85.151053,96.521249)" />
    <path
       style="fill:#ffffff;stroke-width:0.21891539"
       d="m 47.575894,133.75118 c -2.541488,-0.36965 -3.884426,-1.24995 -4.119825,-2.70054 -0.115069,-0.70909 -0.04328,-0.88072 0.636609,-1.52193 1.454388,-1.37167 5.435754,-2.99256 10.237278,-4.16779 5.411198,-1.32446 9.098283,-1.64325 21.015878,-1.81709 17.171382,-0.25046 35.505716,0.65105 40.867876,2.00951 3.89588,0.98699 7.69019,3.26053 8.08823,4.84646 0.19501,0.77697 -0.78036,2.11094 -1.96157,2.68276 -2.09128,1.01237 -5.81505,1.07493 -21.05306,0.35369 -14.409026,-0.68201 -26.693523,-0.61725 -39.623689,0.20887 -5.321396,0.33999 -12.127101,0.39122 -14.087727,0.10606 z"
       id="path88"
       inkscape:connector-curvature="0"
       transform="matrix(0.26458333,0,0,0.26458333,85.151053,96.521249)" />
  </g>
</svg>
